{
  "RL": {
      "protocolType": "http",
      "url": "http://www.rlcarriers.com/b2brateparam.asp?id=2159571411&origin={ORIG}&dest={DEST}&class1={CLASS1}&weight1={WEIGHT1}&custdata=123456&respickup={RL-PICKUP}&resdel={RL-RDEL}&insidechrg={RL-IDEL}&furnchrg=&liftgateorigin=&liftgatedest={RL-LIFTGATE}&delnotify=X&freezable=&hazmat=&cod=",
      "needed": [
          "QUOTE",
          "NETCHARGES",
          "DAYS"
      ],
      "timeout": "20",
      "mapper": "RLMapper",
      "error": "ERROR"
  },
  "ESTES": {
      "protocolType": "http",
      "url": "http://www.estes-express.com/cgi-dta/qun100.mbr/output?format=xml&origin_zip={ORIG}&destination_zip={DEST}&class_1={CLASS1}&weight_1={WEIGHT1}&class_2=&weight_2=&class_3=&weight_3=&class_4=&weight_4=&class_5=&weight_5=&class_6=&weight_6=&payor=S&terms=P&accessorial_1=&accessorial_2=&accessorial_3=&user_name=lux_xml&password=shipping&QCACT=5324206",
      "needed": [
          "QUOTETO",
          "QUOTEDATE",
          "QUOTENUMBER",
          "TOZIP",
          "FROMZIP",
          "WEIGHT1",
          "CLASS1",
          "TOTALFREIGHTCHARGES",
          "DISCOUNT",
          "TOTALACCESSORIALCHARGES",
          "FUELSURCHARGE",
          "NETFREIGHTCHARGES"
      ],
      "timeout": "20",
      "mapper": "EstesMapper"
  },
  "ABF-NONPALLET": {
      "protocolType": "http",
      "url": "http://www.abfs.com/xml/aquotexml.asp?DL=2&AcctNum=650793&Password=rn5845&ShipCity={ORIG_CITY}&ShipState={ORIG_STATE}&ShipZip={ORIG}&ShipCountry={ORIGCOUNTRY2}&ShipPay=Y&ShipAff=Y&ConsCity={SHIP_CITY}&ConsState={SHIP_STATE}&ConsZip={DEST}&ConsCountry={DESTCOUNTRY2}&Wgt1={WEIGHT1}&Class1={CLASS1}&Desc1=books&Acc_GRD_DEL={LIFTGATE}&Acc_IDEL={IDEL}&Acc_RDEL={RDEL}&Acc_ARR={CALL}&ShipMonth={SHIP_MONTH}&ShipDay={SHIP_DAY}&ShipYear={SHIP_YEAR}&FrtLng=4&FrtWdth=4&FrtHght=4&Acc_SS=N",
      "url-notOrigins": "http://www.abfs.com/xml/aquotexml.asp?DL=2&AcctNum=650793&Password=rn5845&ShipCity={SHIP_CITY}&ShipState={SHIP_STATE}&ShipZip={DEST}&ShipCountry=US&ShipPay=Y&ShipAff=Y&ConsCity={ORIG_CITY}&ConsState={ORIG_STATE}&ConsZip={ORIG}&ConsCountry={DESTCOUNTRY2}&Wgt1={WEIGHT1}&Class1={CLASS1}&Desc1=books&ShipMonth={SHIP_MONTH}&ShipDay={SHIP_DAY}&ShipYear={SHIP_YEAR}&FrtLng=4&FrtWdth=4&FrtHght=4&Acc_GRD_DEL={LIFTGATE}&Acc_IDEL={IDEL}&Acc_RDEL={RDEL}&Acc_ARR={CALL}",
      "needed": [
          "CHARGE",
          "DISCOUNTPERCENTAGE",
          "QUOTEID",
          "ADVERTISEDTRANSIT"
      ],
      "timeout": "20",
      "mapper": "AbfMapper"
  },
  "FEDEX FREIGHT": {
      "protocolType": "http",
      "url": "http://www.fedexfreight.fedex.com/XMLLTLRatingNoCity.jsp?regKey=415060602|1218616550&as_opco=Economy&as_acctnbr=381145964&as_shipterms=prepaid&as_shzip={ORIG}&as_shcntry={ORIGCOUNTRY2}&as_shstate={ORIG_STATE}&as_shcity={ORIG_CITY}&as_cnzip={DEST}&as_cnstate={SHIP_STATE}&as_cncity={SHIP_CITY}&as_cncntry={DESTCOUNTRY2}&as_iamthe=shipper&as_codfee=prepaid&as_codamount=0.00&as_pkgtype1=skid&as_liftgate={LIFTGATE}&as_residentialdelivery={RDEL}&as_residentialpickup={FED-RPICKUP}&as_callbefore={CALL}&as_class1={CLASS1}&as_weight1={WEIGHT1}&as_haz1=N",
      "url-notOrigins": "http://www.fedexfreight.fedex.com/XMLLTLRatingNoCity.jsp?regKey=415060602|1218616550&as_opco=Economy&as_acctnbr=415060602&as_shipterms=prepaid&as_shzip={ORIG}&as_shcntry={ORIGCOUNTRY2}&as_shstate={ORIG_STATE}&as_shcity={ORIG_CITY}&as_cnzip={DEST}&as_cnstate={SHIP_STATE}&as_cncity={SHIP_CITY}&as_cncntry={DESTCOUNTRY2}&as_iamthe=billto&as_codfee=prepaid&as_codamount=0.00&as_pkgtype1=skid&as_class1={CLASS1}&as_weight1={WEIGHT1}&as_haz1=N&as_billto_country=US&as_billto_address=eastern&as_billto_city=WARMINSTER&as_billto_state=PA&as_billto_zip=18974&as_billto_country=US&as_liftgate={LIFTGATE}&as_insidedelivery={FEDEX-IDEL}&as_residentialdelivery={RDEL}&as_residentialpickup={FED-RPICKUP}&as_callbefore={CALL}",
      "needed": [
          "NET-FREIGHT-CHARGES",
          "RATE-NUMBER",
          "TRANSIT-DAYS",
          "TITLE",
          "ERROR"
      ],
      "timeout": "20",
      "mapper": "FedexMapper",
      "error": "TITLE"
  },
  "FEDEX-PRIORITY": {
      "protocolType": "http",
      "url": "http://www.fedexfreight.fedex.com/XMLLTLRatingNoCity.jsp?regKey=381145964|1182239119&as_opco=Priority&as_acctnbr=483818866&as_shipterms=prepaid&as_shzip={ORIG}&as_shcntry={ORIGCOUNTRY2}&as_shstate={ORIG_STATE}&as_shcity={ORIG_CITY}&as_cnzip={DEST}&as_cnstate={SHIP_STATE}&as_cncity={SHIP_CITY}&as_cncntry={DESTCOUNTRY2}&as_iamthe=shipper&as_codfee=prepaid&as_codamount=0.00&as_pkgtype1=skid&as_liftgate={LIFTGATE}&as_residentialdelivery={RDEL}&as_residentialpickup={FED-RPICKUP}&as_callbefore={CALL}&as_class1={CLASS1}&as_weight1={WEIGHT1}&as_haz1=N",
      "url-notOrigins": "http://www.fedexfreight.fedex.com/XMLLTLRatingNoCity.jsp?regKey=415060602|1218616550&as_opco=Priority&as_acctnbr=483818866&as_shipterms=prepaid&as_shzip={ORIG}&as_shcntry={ORIGCOUNTRY2}&as_shstate={ORIG_STATE}&as_shcity={ORIG_CITY}&as_cnzip={DEST}&as_cnstate={SHIP_STATE}&as_cncity={SHIP_CITY}&as_cncntry={DESTCOUNTRY2}&as_iamthe=billto&as_codfee=prepaid&as_codamount=0.00&as_pkgtype1=skid&as_class1={CLASS1}&as_weight1={WEIGHT1}&as_haz1=N&as_billto_country=US&as_billto_address=eastern&as_billto_city=WARMINSTER&as_billto_state=PA&as_billto_zip=18974&as_billto_country=US&as_liftgate={LIFTGATE}&as_insidedelivery={FEDEX-IDEL}&as_residentialdelivery={RDEL}&as_residentialpickup={FED-RPICKUP}&as_callbefore={CALL}",
      "needed": [
          "NET-FREIGHT-CHARGES",
          "RATE-NUMBER",
          "TRANSIT-DAYS",
          "TITLE",
          "ERROR"
      ],
      "timeout": "20",
      "mapper": "FedexMapper",
      "error": "TITLE"
  },
  "YELLOW-NONPAL": {
      "protocolType": "http",
      "url": "https://my.yrc.com/dynamic/national/servlet?CONTROLLER=com.rdwy.ec.rexcommon.proxy.http.controller.ProxyApiController&redir=/tfq561&LOGIN_USERID=tanyas09&LOGIN_PASSWORD=dora1234&BusId=11320291306&BusRole=Shipper&PaymentTerms=Prepaid&OrigCityName={ORIG_CITY}&OrigStateCode={ORIG_STATE}&OrigZipCode={ORIG}&OrigNationCode={ORIGCOUNTRY3}&DestCityName={SHIP_CITY}&DestStateCode={SHIP_STATE}&DestZipCode={DEST}&DestNationCode={DESTCOUNTRY3}&ServiceClass=STD&PickupDate={DATE}&TypeQuery=QUOTE&LineItemWeight1={WEIGHT1}&&LineItemPackageCode1=BDL&LineItemNmfcClass1={CLASS1}&LineItemCount=1&AccOption1={HOMD}&AccOptionCount=1&OPT_ID={YRC-IDEL}",
      "url-notOrigins": "https://my.yrc.com/dynamic/national/servlet?CONTROLLER=com.rdwy.ec.rexcommon.proxy.http.controller.ProxyApiController&redir=/tfq561&LOGIN_USERID=tanyas09&LOGIN_PASSWORD=dora1234&BusId=11320291306&BusRole=consignee&PaymentTerms=Prepaid&OrigCityName={ORIG_CITY}&OrigStateCode={ORIG_STATE}&OrigZipCode={ORIG}&OrigNationCode={ORIGCOUNTRY3}&DestCityName={SHIP_CITY}&DestStateCode={SHIP_STATE}&DestZipCode={DEST}&DestNationCode={DESTCOUNTRY3}&ServiceClass=STD&PickupDate={DATE}&TypeQuery=QUOTE&LineItemWeight1={WEIGHT1}&&LineItemPackageCode1=SKD&LineItemNmfcClass1={CLASS1}&LineItemCount=1&AccOption1={HOMD}&AccOptionCount=1&OPT_ID={YRC-IDEL}",
      "needed": [
          "TOTALCHARGES",
          "REFERENCEID",
          "STANDARDDAYS",
          "ERRORMESSAGE"
      ],
      "timeout": "20",
      "mapper": "YellowMapper",
      "error": "ERRORMESSAGE"
  },
  "PITT-NONPALLET": {
      "protocolType": "http",
      "url": "http://works.pittohio.com/mypittohio/b2bratecalcCityLookup.asp?acctnum=XML@bathauthority.com&password=one234five&shipzip={ORIG}&conszip={DEST}&class1={CLASS1}&weight1={WEIGHT1}&nmfc1=&acc_res=Y&test=Y&Acc_LGD=Y&Acc_MNC=Y&&test=Y&Acc_LGD={LIFTGATE}&Acc_IDL={IDEL}&Acc_RES={RDEL}&Acc_MNC={CALL}",
      "needed": [
          "TOTALCHARGES",
          "QUOTEID",
          "ADVERTISEDTRANSIT"
      ],
      "timeout": "20",
      "mapper": "PittMapper"
  },
  "ODFL": {
      "protocolType": "soap",
      "url": "http://www.odfl.com/wsRate_v1/services/ODRate/wsdl/ODRate-v1.wsdl",
      "namespace": "http://odfl.com/ws/ODRate-v1.0",
      "timeout": "20",
      "mapper": "OdflMapper"
  }
}

